out/tracefile.vcd
$date
     Jul 07, 2024       22:51:56
$end

$version
 SystemC 2.3.4-Accellera --- May 18 2024 20:07:29
$end

$timescale
     1 ps
$end

$scope module SystemC $end
$var wire    1  aaaaa  Clock       $end
$var wire   32  aaaab   Request Address [31:0]  $end
$var wire   32  aaaac  Request Data [31:0]  $end
$var wire   32  aaaad  Request WE [31:0]  $end
$var wire   32  aaaae  Result Cycles [31:0]  $end
$var wire   64  aaaaf  Result Misses [63:0]  $end
$var wire   64  aaaag  Result Hits [63:0]  $end
$var wire   64  aaaah  Result Primitive Gate Count [63:0]  $end
$upscope $end
$enddefinitions  $end

$comment
All initial values are dumped below at time 0 sec = 0 timescale units.
$end

$dumpvars
1aaaaa
b0 aaaab
b11 aaaac
b1 aaaad
b110010000 aaaae
b1 aaaaf
b0 aaaag
b0 aaaah
$end

#500000000000
0aaaaa

#1000000000000
1aaaaa
b100 aaaab
b111 aaaac
b1 aaaag

#1500000000000
0aaaaa

#2000000000000
1aaaaa
b1000 aaaab
b100 aaaac
b10 aaaaf

#2500000000000
0aaaaa

#3000000000000
1aaaaa
b1100 aaaab
b1100 aaaac
b10 aaaag

#3500000000000
0aaaaa

#4000000000000
1aaaaa
b10000 aaaab
b110 aaaac
b11 aaaaf

#4500000000000
0aaaaa

#5000000000000
1aaaaa
b10100 aaaab
b10010 aaaac
b11 aaaag

#5500000000000
0aaaaa

#6000000000000
1aaaaa
b11000 aaaab
b1000 aaaac
b100 aaaaf

#6500000000000
0aaaaa

#7000000000000
1aaaaa
b11100 aaaab
b1 aaaac
b100 aaaag

#7500000000000
0aaaaa

#8000000000000
1aaaaa
b100000 aaaab
b101 aaaac
b101 aaaaf

#8500000000000
0aaaaa

#9000000000000
1aaaaa
b100100 aaaab
b10111 aaaac
b101 aaaag

#9500000000000
0aaaaa

#10000000000000
1aaaaa
b101000 aaaab
b11 aaaac
b110 aaaaf

#10500000000000
0aaaaa

#11000000000000
1aaaaa
b101100 aaaab
b101001 aaaac
b110 aaaag

#11500000000000
0aaaaa

#12000000000000
1aaaaa
b110000 aaaab
b11101 aaaac
b111 aaaaf

#12500000000000
0aaaaa

#13000000000000
1aaaaa
b110100 aaaab
b10001 aaaac
b111 aaaag

#13500000000000
0aaaaa

#14000000000000
1aaaaa
b111000 aaaab
b101 aaaac
b1000 aaaaf

#14500000000000
0aaaaa

#15000000000000
1aaaaa
b111100 aaaab
b1 aaaac
b1000 aaaag

#15500000000000
0aaaaa

#16000000000000
1aaaaa
b1110100 aaaab
b10011 aaaac
b1001 aaaaf

#16500000000000
0aaaaa

#17000000000000
1aaaaa
b1111000 aaaab
b1101 aaaac
b1010 aaaaf

#17500000000000
0aaaaa

#18000000000000
1aaaaa
b1111100 aaaab
b110001 aaaac
b1001 aaaag

#18500000000000
0aaaaa

#19000000000000
1aaaaa
b10000000 aaaab
b10110 aaaac
b1011 aaaaf

#19500000000000
0aaaaa

#20000000000000
1aaaaa
b10000100 aaaab
b100 aaaac
b1010 aaaag

#20500000000000
0aaaaa

#21000000000000
1aaaaa
b10001000 aaaab
b10101 aaaac
b1100 aaaaf

#21500000000000
0aaaaa

#22000000000000
1aaaaa
b10001100 aaaab
b100101 aaaac
b1011 aaaag

#22500000000000
0aaaaa

#23000000000000
1aaaaa
b10010000 aaaab
b100010 aaaac
b1101 aaaaf

#23500000000000
0aaaaa

#24000000000000
1aaaaa
b10010100 aaaab
b110010 aaaac
b1100 aaaag

#24500000000000
0aaaaa

#25000000000000
1aaaaa
b10011000 aaaab
b0 aaaac
b1110 aaaaf

#25500000000000
0aaaaa

#26000000000000
1aaaaa
b10011100 aaaab
b1000 aaaac
b1101 aaaag

#26500000000000
0aaaaa

#27000000000000
1aaaaa
b10100000 aaaab
b1110 aaaac
b1111 aaaaf

#27500000000000
0aaaaa

#28000000000000
1aaaaa
b10100100 aaaab
b11010 aaaac
b1110 aaaag

#28500000000000
0aaaaa

#29000000000000
1aaaaa
b10101000 aaaab
b111 aaaac
b10000 aaaaf

#29500000000000
0aaaaa

#30000000000000
1aaaaa
b10101100 aaaab
b1101 aaaac
b1111 aaaag

#30500000000000
0aaaaa

#31000000000000
1aaaaa
b10110000 aaaab
b0 aaaac
b10001 aaaaf

#31500000000000
0aaaaa

#32000000000000
1aaaaa
b11000000 aaaab
b10010 aaaaf

#32500000000000
0aaaaa

#33000000000000
1aaaaa
b11000100 aaaab
b10000 aaaag

#33500000000000
0aaaaa

#34000000000000
1aaaaa
b11001000 aaaab
b10011 aaaaf

#34500000000000
0aaaaa

#35000000000000
1aaaaa
b11001100 aaaab
b10001 aaaag

#35500000000000
0aaaaa

#36000000000000
1aaaaa
b11010000 aaaab
b10100 aaaaf

#36500000000000
0aaaaa

#37000000000000
1aaaaa
b11010100 aaaab
b10010 aaaag

#37500000000000
0aaaaa

#38000000000000
1aaaaa
b11011000 aaaab
b10101 aaaaf

#38500000000000
0aaaaa

#39000000000000
1aaaaa
b11011100 aaaab
b10011 aaaag

#39500000000000
0aaaaa

#40000000000000
1aaaaa
b11100000 aaaab
b10110 aaaaf

#40500000000000
0aaaaa

#41000000000000
1aaaaa
b11100100 aaaab
b10100 aaaag

#41500000000000
0aaaaa

#42000000000000
1aaaaa
b11101000 aaaab
b10111 aaaaf

#42500000000000
0aaaaa

#43000000000000
1aaaaa
b11101100 aaaab
b10101 aaaag

#43500000000000
0aaaaa

#44000000000000
1aaaaa
b11110000 aaaab
b11000 aaaaf

#44500000000000
0aaaaa

#45000000000000
1aaaaa
b11110100 aaaab
b10110 aaaag

#45500000000000
0aaaaa

#46000000000000
1aaaaa
b11111000 aaaab
b11001 aaaaf

#46500000000000
0aaaaa

#47000000000000
1aaaaa
b11111100 aaaab
b10111 aaaag

#47500000000000
0aaaaa

#48000000000000
1aaaaa
b0 aaaab
b0 aaaad
b11010 aaaaf

#48500000000000
0aaaaa

#49000000000000
1aaaaa
b1110100 aaaab
b11011 aaaaf

#49500000000000
0aaaaa

#50000000000000
1aaaaa
b11000000 aaaab
b11100 aaaaf

#50500000000000
0aaaaa

#51000000000000
1aaaaa
b111001 aaaac
b1 aaaad
b11000 aaaag
b1011100000000 aaaah

#51500000000000
0aaaaa

#52000000000000
1aaaaa
b100 aaaab
b0 aaaac
b0 aaaad
b11101 aaaaf
b1011110011101 aaaah

#52500000000000
0aaaaa

#53000000000000
1aaaaa
b10000100 aaaab
b11110 aaaaf

#53500000000000
0aaaaa

#54000000000000
1aaaaa
b11000000 aaaab
b11111 aaaaf

#54500000000000
0aaaaa

#55000000000000
1aaaaa
b1010101 aaaac
b1 aaaad
b11001 aaaag
b10111010011101 aaaah

#55500000000000
0aaaaa

#56000000000000
1aaaaa
b1000 aaaab
b0 aaaac
b0 aaaad
b100000 aaaaf
b10111100111010 aaaah

#56500000000000
0aaaaa

#57000000000000
1aaaaa
b10010100 aaaab
b100001 aaaaf

#57500000000000
0aaaaa

#58000000000000
1aaaaa
b11000000 aaaab
b11010 aaaag

#58500000000000
0aaaaa

#59000000000000
1aaaaa
b100011101 aaaac
b1 aaaad
b11011 aaaag
b100011000111010 aaaah

#59500000000000
0aaaaa

#60000000000000
1aaaaa
b1100 aaaab
b0 aaaac
b0 aaaad
b11100 aaaag
b100011011010111 aaaah

#60500000000000
0aaaaa

#61000000000000
1aaaaa
b10100100 aaaab
b100010 aaaaf

#61500000000000
0aaaaa

#62000000000000
1aaaaa
b11000000 aaaab
b11101 aaaag

#62500000000000
0aaaaa

#63000000000000
1aaaaa
b1001010101 aaaac
b1 aaaad
b11110 aaaag
b101110111010111 aaaah

#63500000000000
0aaaaa

#64000000000000
1aaaaa
b0 aaaab
b0 aaaac
b0 aaaad
b100011 aaaaf
b101111001110100 aaaah

#64500000000000
0aaaaa

#65000000000000
1aaaaa
b1111000 aaaab
b100100 aaaaf

#65500000000000
0aaaaa

#66000000000000
1aaaaa
b11000100 aaaab
b100101 aaaaf

#66500000000000
0aaaaa

#67000000000000
1aaaaa
b100111 aaaac
b1 aaaad
b11111 aaaag
b111010101110100 aaaah

#67500000000000
0aaaaa

#68000000000000
1aaaaa
b100 aaaab
b0 aaaac
b0 aaaad
b100110 aaaaf
b111011000010001 aaaah

#68500000000000
0aaaaa

#69000000000000
1aaaaa
b10001000 aaaab
b100111 aaaaf

#69500000000000
0aaaaa

#70000000000000
1aaaaa
b11000100 aaaab
b101000 aaaaf

#70500000000000
0aaaaa

#71000000000000
1aaaaa
b10111010 aaaac
b1 aaaad
b100000 aaaag
b1000110100010001 aaaah

#71500000000000
0aaaaa

#72000000000000
1aaaaa
b1000 aaaab
b0 aaaac
b0 aaaad
b101001 aaaaf
b1000110110101110 aaaah

#72500000000000
0aaaaa

#73000000000000
1aaaaa
b10011000 aaaab
b101010 aaaaf

#73500000000000
0aaaaa

#74000000000000
1aaaaa
b11000100 aaaab
b100001 aaaag

#74500000000000
0aaaaa

#75000000000000
1aaaaa
b10111010 aaaac
b1 aaaad
b100010 aaaag
b1010010010101110 aaaah

#75500000000000
0aaaaa

#76000000000000
1aaaaa
b1100 aaaab
b0 aaaac
b0 aaaad
b100011 aaaag
b1010010101001011 aaaah

#76500000000000
0aaaaa

#77000000000000
1aaaaa
b10101000 aaaab
b101011 aaaaf

#77500000000000
0aaaaa

#78000000000000
1aaaaa
b11000100 aaaab
b100100 aaaag

#78500000000000
0aaaaa

#79000000000000
1aaaaa
b100001110 aaaac
b1 aaaad
b100101 aaaag
b1011110001001011 aaaah

#79500000000000
0aaaaa

#80000000000000
1aaaaa
b0 aaaab
b0 aaaac
b0 aaaad
b101100 aaaaf
b1011110011101000 aaaah

#80500000000000
0aaaaa

#81000000000000
1aaaaa
b1111100 aaaab
b100110 aaaag

#81500000000000
0aaaaa

#82000000000000
1aaaaa
b11001000 aaaab
b101101 aaaaf

#82500000000000
0aaaaa

#83000000000000
1aaaaa
b10010011 aaaac
b1 aaaad
b100111 aaaag
b1101001111101000 aaaah

#83500000000000
0aaaaa

#84000000000000
1aaaaa
b100 aaaab
b0 aaaac
b0 aaaad
b101000 aaaag
b1101010010000101 aaaah

#84500000000000
0aaaaa

#85000000000000
1aaaaa
b10001100 aaaab
b101110 aaaaf

#85500000000000
0aaaaa

#86000000000000
1aaaaa
b11001000 aaaab
b101111 aaaaf

#86500000000000
0aaaaa

#87000000000000
1aaaaa
b110010110 aaaac
b1 aaaad
b101001 aaaag
b1110101110000101 aaaah

#87500000000000
0aaaaa

#88000000000000
1aaaaa
b1000 aaaab
b0 aaaac
b0 aaaad
b110000 aaaaf
b1110110000100010 aaaah

#88500000000000
0aaaaa

#89000000000000
1aaaaa
b10011100 aaaab
b101010 aaaag

#89500000000000
0aaaaa

#90000000000000
1aaaaa
b11001000 aaaab
b110001 aaaaf

#90500000000000
0aaaaa

#91000000000000
1aaaaa
b110110110 aaaac
b1 aaaad
b101011 aaaag
b10000001100100010 aaaah

#91500000000000
0aaaaa

#92000000000000
1aaaaa
b1100 aaaab
b0 aaaac
b0 aaaad
b110010 aaaaf
b10000001110111111 aaaah

#92500000000000
0aaaaa

#93000000000000
1aaaaa
b10101100 aaaab
b101100 aaaag

#93500000000000
0aaaaa

#94000000000000
1aaaaa
b11001000 aaaab
b110011 aaaaf

#94500000000000
0aaaaa

#95000000000000
1aaaaa
b1001010010 aaaac
b1 aaaad
b101101 aaaag
b10001101010111111 aaaah

#95500000000000
0aaaaa

#96000000000000
1aaaaa
b0 aaaab
b0 aaaac
b0 aaaad
b101110 aaaag
b10001101101011100 aaaah

#96500000000000
0aaaaa

#97000000000000
1aaaaa
b10000000 aaaab
b110100 aaaaf

#97500000000000
0aaaaa

#98000000000000
1aaaaa
b11001100 aaaab
b101111 aaaag

#98500000000000
0aaaaa

#99000000000000
1aaaaa
b1000010 aaaac
b1 aaaad
b110000 aaaag
b10011001001011100 aaaah

#99500000000000
0aaaaa

#100000000000000
1aaaaa
b100 aaaab
b0 aaaac
b0 aaaad
b110101 aaaaf
b10011001011111001 aaaah

#100500000000000
0aaaaa

#101000000000000
1aaaaa
b10010000 aaaab
b110001 aaaag

#101500000000000
0aaaaa

#102000000000000
1aaaaa
b11001100 aaaab
b110010 aaaag

#102500000000000
0aaaaa

#103000000000000
1aaaaa
b100110000 aaaac
b1 aaaad
b110011 aaaag
b10100100111111001 aaaah

#103500000000000
0aaaaa

#104000000000000
1aaaaa
b1000 aaaab
b0 aaaac
b0 aaaad
b110110 aaaaf
b10100101010010110 aaaah

#104500000000000
0aaaaa

#105000000000000
1aaaaa
b10100000 aaaab
b110100 aaaag

#105500000000000
0aaaaa

#106000000000000
1aaaaa
b11001100 aaaab
b110111 aaaaf

#106500000000000
0aaaaa

#107000000000000
1aaaaa
b101101000 aaaac
b1 aaaad
b110101 aaaag
b10110000110010110 aaaah

#107500000000000
0aaaaa

#108000000000000
1aaaaa
b1100 aaaab
b0 aaaac
b0 aaaad
b111000 aaaaf
b10110001000110011 aaaah

#108500000000000
0aaaaa

#109000000000000
1aaaaa
b10110000 aaaab
b111001 aaaaf

#109500000000000
0aaaaa

#110000000000000
1aaaaa
b11001100 aaaab
b111010 aaaaf

#110500000000000
0aaaaa

#111000000000000
1aaaaa
b101101000 aaaac
b1 aaaad
b110110 aaaag
b10111100100110011 aaaah

#111500000000000
0aaaaa

#112000000000000
1aaaaa
b10000 aaaab
b0 aaaac
b0 aaaad
b111011 aaaaf
b10111100111010000 aaaah

#112500000000000
0aaaaa

#113000000000000
1aaaaa
b1110100 aaaab
b111100 aaaaf

#113500000000000
0aaaaa

#114000000000000
1aaaaa
b11010000 aaaab
b111101 aaaaf

#114500000000000
0aaaaa

#115000000000000
1aaaaa
b1110010 aaaac
b1 aaaad
b110111 aaaag
b11001000011010000 aaaah

#115500000000000
0aaaaa

#116000000000000
1aaaaa
b10100 aaaab
b0 aaaac
b0 aaaad
b111110 aaaaf
b11001000101101101 aaaah

#116500000000000
0aaaaa

#117000000000000
1aaaaa
b10000100 aaaab
b111111 aaaaf

#117500000000000
0aaaaa

#118000000000000
1aaaaa
b11010000 aaaab
b1000000 aaaaf

#118500000000000
0aaaaa

#119000000000000
1aaaaa
b10111010 aaaac
b1 aaaad
b111000 aaaag
b11010100001101101 aaaah

#119500000000000
0aaaaa

#120000000000000
1aaaaa
b11000 aaaab
b0 aaaac
b0 aaaad
b1000001 aaaaf
b11010100100001010 aaaah

#120500000000000
0aaaaa

#121000000000000
1aaaaa
b10010100 aaaab
b1000010 aaaaf

#121500000000000
0aaaaa

#122000000000000
1aaaaa
b11010000 aaaab
b1000011 aaaaf

#122500000000000
0aaaaa

#123000000000000
1aaaaa
b1001001010 aaaac
b1 aaaad
b111001 aaaag
b11100000000001010 aaaah

#123500000000000
0aaaaa

#124000000000000
1aaaaa
b11100 aaaab
b0 aaaac
b0 aaaad
b111010 aaaag
b11100000010100111 aaaah

#124500000000000
0aaaaa

#125000000000000
1aaaaa
b10100100 aaaab
b111011 aaaag

#125500000000000
0aaaaa

#126000000000000
1aaaaa
b11010000 aaaab
b111100 aaaag

#126500000000000
0aaaaa

#127000000000000
1aaaaa
b1001100100 aaaac
b1 aaaad
b111101 aaaag
b11101011110100111 aaaah

#127500000000000
0aaaaa

#128000000000000
1aaaaa
b10000 aaaab
b0 aaaac
b0 aaaad
b1000100 aaaaf
b11101100001000100 aaaah

#128500000000000
0aaaaa

#129000000000000
1aaaaa
b1111000 aaaab
b111110 aaaag

#129500000000000
0aaaaa

#130000000000000
1aaaaa
b11010100 aaaab
b1000101 aaaaf

#130500000000000
0aaaaa

#131000000000000
1aaaaa
b1001110 aaaac
b1 aaaad
b111111 aaaag
b11110111101000100 aaaah

#131500000000000
0aaaaa

#132000000000000
1aaaaa
b10100 aaaab
b0 aaaac
b0 aaaad
b1000110 aaaaf
b11110111111100001 aaaah

#132500000000000
0aaaaa

#133000000000000
1aaaaa
b10001000 aaaab
b1000111 aaaaf

#133500000000000
0aaaaa

#134000000000000
1aaaaa
b11010100 aaaab
b1001000 aaaaf

#134500000000000
0aaaaa

#135000000000000
1aaaaa
b111001000 aaaac
b1 aaaad
b1000000 aaaag
b100000011011100001 aaaah

#135500000000000
0aaaaa

#136000000000000
1aaaaa
b11000 aaaab
b0 aaaac
b0 aaaad
b1000001 aaaag
b100000011101111110 aaaah

#136500000000000
0aaaaa

#137000000000000
1aaaaa
b10011000 aaaab
b1001001 aaaaf

#137500000000000
0aaaaa

#138000000000000
1aaaaa
b11010100 aaaab
b1000010 aaaag

#138500000000000
0aaaaa

#139000000000000
1aaaaa
b111001000 aaaac
b1 aaaad
b1000011 aaaag
b100001111001111110 aaaah

#139500000000000
0aaaaa

#140000000000000
1aaaaa
b11100 aaaab
b0 aaaac
b0 aaaad
b1001010 aaaaf
b100001111100011011 aaaah

#140500000000000
0aaaaa

#141000000000000
1aaaaa
b10101000 aaaab
b1000100 aaaag

#141500000000000
0aaaaa

#142000000000000
1aaaaa
b11010100 aaaab
b1000101 aaaag

#142500000000000
0aaaaa

#143000000000000
1aaaaa
b111001111 aaaac
b1 aaaad
b1000110 aaaag
b100011011000011011 aaaah

#143500000000000
0aaaaa

#144000000000000
1aaaaa
b10000 aaaab
b0 aaaac
b0 aaaad
b1001011 aaaaf
b100011011010111000 aaaah

#144500000000000
0aaaaa

#145000000000000
1aaaaa
b1111100 aaaab
b1000111 aaaag

#145500000000000
0aaaaa

#146000000000000
1aaaaa
b11011000 aaaab
b1001100 aaaaf

#146500000000000
0aaaaa

#147000000000000
1aaaaa
b100100110 aaaac
b1 aaaad
b1001000 aaaag
b100100110110111000 aaaah

#147500000000000
0aaaaa

#148000000000000
1aaaaa
b10100 aaaab
b0 aaaac
b0 aaaad
b1001001 aaaag
b100100111001010101 aaaah

#148500000000000
0aaaaa

#149000000000000
1aaaaa
b10001100 aaaab
b1001010 aaaag

#149500000000000
0aaaaa

#150000000000000
1aaaaa
b11011000 aaaab
b1001011 aaaag

#150500000000000
0aaaaa

#151000000000000
1aaaaa
b1111000000 aaaac
b1 aaaad
b1001100 aaaag
b100110010101010101 aaaah

#151500000000000
0aaaaa

#152000000000000
1aaaaa
b11000 aaaab
b0 aaaac
b0 aaaad
b1001101 aaaaf
b100110010111110010 aaaah

#152500000000000
0aaaaa

#153000000000000
1aaaaa
b10011100 aaaab
b1001110 aaaaf

#153500000000000
0aaaaa

#154000000000000
1aaaaa
b11011000 aaaab
b1001111 aaaaf

#154500000000000
0aaaaa

#155000000000000
1aaaaa
b10000000000 aaaac
b1 aaaad
b1001101 aaaag
b100111110011110010 aaaah

#155500000000000
0aaaaa

#156000000000000
1aaaaa
b11100 aaaab
b0 aaaac
b0 aaaad
b1010000 aaaaf
b100111110110001111 aaaah

#156500000000000
0aaaaa

#157000000000000
1aaaaa
b10101100 aaaab
b1001110 aaaag

#157500000000000
0aaaaa

#158000000000000
1aaaaa
b11011000 aaaab
b1010001 aaaaf

#158500000000000
0aaaaa

#159000000000000
1aaaaa
b10000001101 aaaac
b1 aaaad
b1001111 aaaag
b101001010010001111 aaaah

#159500000000000
0aaaaa

#160000000000000
1aaaaa
b10000 aaaab
b0 aaaac
b0 aaaad
b1010000 aaaag
b101001010100101100 aaaah

#160500000000000
0aaaaa

#161000000000000
1aaaaa
b10000000 aaaab
b1010001 aaaag

#161500000000000
0aaaaa

#162000000000000
1aaaaa
b11011100 aaaab
b1010010 aaaag

#162500000000000
0aaaaa

#163000000000000
1aaaaa
b10000100 aaaac
b1 aaaad
b1010011 aaaag
b101010110000101100 aaaah

#163500000000000
0aaaaa

#164000000000000
1aaaaa
b10100 aaaab
b0 aaaac
b0 aaaad
b1010100 aaaag
b101010110011001001 aaaah

#164500000000000
0aaaaa

#165000000000000
1aaaaa
b10010000 aaaab
b1010010 aaaaf

#165500000000000
0aaaaa

#166000000000000
1aaaaa
b11011100 aaaab
b1010101 aaaag

#166500000000000
0aaaaa

#167000000000000
1aaaaa
b1011101000 aaaac
b1 aaaad
b1010110 aaaag
b101100001111001001 aaaah

#167500000000000
0aaaaa

#168000000000000
1aaaaa
b11000 aaaab
b0 aaaac
b0 aaaad
b1010011 aaaaf
b101100010001100110 aaaah

#168500000000000
0aaaaa

#169000000000000
1aaaaa
b10100000 aaaab
b1010111 aaaag

#169500000000000
0aaaaa

#170000000000000
1aaaaa
b11011100 aaaab
b1010100 aaaaf

#170500000000000
0aaaaa

#171000000000000
1aaaaa
b1101011000 aaaac
b1 aaaad
b1011000 aaaag
b101101101101100110 aaaah

#171500000000000
0aaaaa

#172000000000000
1aaaaa
b11100 aaaab
b0 aaaac
b0 aaaad
b1010101 aaaaf
b101101110000000011 aaaah

#172500000000000
0aaaaa

#173000000000000
1aaaaa
b10110000 aaaab
b1010110 aaaaf

#173500000000000
0aaaaa

#174000000000000
1aaaaa
b11011100 aaaab
b1010111 aaaaf

#174500000000000
0aaaaa

#175000000000000
1aaaaa
b1101011000 aaaac
b1 aaaad
b1011001 aaaag
b101111001100000011 aaaah

#175500000000000
0aaaaa

#176000000000000
1aaaaa
b100000 aaaab
b0 aaaac
b0 aaaad
b1011000 aaaaf
b101111001110100000 aaaah

#176500000000000
0aaaaa

#177000000000000
1aaaaa
b1110100 aaaab
b1011001 aaaaf

#177500000000000
0aaaaa

#178000000000000
1aaaaa
b11100000 aaaab
b1011010 aaaaf

#178500000000000
0aaaaa

#179000000000000
1aaaaa
b1011111 aaaac
b1 aaaad
b1011010 aaaag
b110000101010100000 aaaah

#179500000000000
0aaaaa

#180000000000000
1aaaaa
b100100 aaaab
b0 aaaac
b0 aaaad
b1011011 aaaaf
b110000101100111101 aaaah

#180500000000000
0aaaaa

#181000000000000
1aaaaa
b10000100 aaaab
b1011011 aaaag

#181500000000000
0aaaaa

#182000000000000
1aaaaa
b11100000 aaaab
b1011100 aaaaf

#182500000000000
0aaaaa

#183000000000000
1aaaaa
b10111011 aaaac
b1 aaaad
b1011100 aaaag
b110010001000111101 aaaah

#183500000000000
0aaaaa

#184000000000000
1aaaaa
b101000 aaaab
b0 aaaac
b0 aaaad
b1011101 aaaaf
b110010001011011010 aaaah

#184500000000000
0aaaaa

#185000000000000
1aaaaa
b10010100 aaaab
b1011101 aaaag

#185500000000000
0aaaaa

#186000000000000
1aaaaa
b11100000 aaaab
b1011110 aaaag

#186500000000000
0aaaaa

#187000000000000
1aaaaa
b101010001 aaaac
b1 aaaad
b1011111 aaaag
b110011100111011010 aaaah

#187500000000000
0aaaaa

#188000000000000
1aaaaa
b101100 aaaab
b0 aaaac
b0 aaaad
b1100000 aaaag
b110011101001110111 aaaah

#188500000000000
0aaaaa

#189000000000000
1aaaaa
b10100100 aaaab
b1011110 aaaaf

#189500000000000
0aaaaa

#190000000000000
1aaaaa
b11100000 aaaab
b1011111 aaaaf

#190500000000000
0aaaaa

#191000000000000
1aaaaa
b10101111011 aaaac
b1 aaaad
b1100001 aaaag
b110101000101110111 aaaah

#191500000000000
0aaaaa

#192000000000000
1aaaaa
b100000 aaaab
b0 aaaac
b0 aaaad
b1100000 aaaaf
b110101001000010100 aaaah

#192500000000000
0aaaaa

#193000000000000
1aaaaa
b1111000 aaaab
b1100010 aaaag

#193500000000000
0aaaaa

#194000000000000
1aaaaa
b11100100 aaaab
b1100001 aaaaf

#194500000000000
0aaaaa

#195000000000000
1aaaaa
b1000001 aaaac
b1 aaaad
b1100011 aaaag
b110110100100010100 aaaah

#195500000000000
0aaaaa

#196000000000000
1aaaaa
b100100 aaaab
b0 aaaac
b0 aaaad
b1100010 aaaaf
b110110100110110001 aaaah

#196500000000000
0aaaaa

#197000000000000
1aaaaa
b10001000 aaaab
b1100100 aaaag

#197500000000000
0aaaaa

#198000000000000
1aaaaa
b11100100 aaaab
b1100011 aaaaf

#198500000000000
0aaaaa

#199000000000000
1aaaaa
b1000100100 aaaac
b1 aaaad
b1100101 aaaag
b111000000010110001 aaaah

#199500000000000
0aaaaa

#200000000000000
1aaaaa
b101000 aaaab
b0 aaaac
b0 aaaad
b1100110 aaaag
b111000000101001110 aaaah

#200500000000000
0aaaaa

#201000000000000
1aaaaa
b10011000 aaaab
b1100100 aaaaf

#201500000000000
0aaaaa

#202000000000000
1aaaaa
b11100100 aaaab
b1100111 aaaag

#202500000000000
0aaaaa

#203000000000000
1aaaaa
b1000100100 aaaac
b1 aaaad
b1101000 aaaag
b111001100001001110 aaaah

#203500000000000
0aaaaa

#204000000000000
1aaaaa
b101100 aaaab
b0 aaaac
b0 aaaad
b1101001 aaaag
b111001100011101011 aaaah

#204500000000000
0aaaaa

#205000000000000
1aaaaa
b10101000 aaaab
b1100101 aaaaf

#205500000000000
0aaaaa

#206000000000000
1aaaaa
b11100100 aaaab
b1101010 aaaag

#206500000000000
0aaaaa

#207000000000000
1aaaaa
b1101000011 aaaac
b1 aaaad
b1101011 aaaag
b111010111111101011 aaaah

#207500000000000
0aaaaa

#208000000000000
1aaaaa
b100000 aaaab
b0 aaaac
b0 aaaad
b1100110 aaaaf
b111011000010001000 aaaah

#208500000000000
0aaaaa

#209000000000000
1aaaaa
b1111100 aaaab
b1101100 aaaag

#209500000000000
0aaaaa

#210000000000000
1aaaaa
b11101000 aaaab
b1100111 aaaaf

#210500000000000
0aaaaa

#211000000000000
1aaaaa
b11110101 aaaac
b1 aaaad
b1101101 aaaag
b111100011110001000 aaaah

#211500000000000
0aaaaa

#212000000000000
1aaaaa
b100100 aaaab
b0 aaaac
b0 aaaad
b1101110 aaaag
b111100100000100101 aaaah

#212500000000000
0aaaaa

#213000000000000
1aaaaa
b10001100 aaaab
b1101111 aaaag

#213500000000000
0aaaaa

#214000000000000
1aaaaa
b11101000 aaaab
b1110000 aaaag

#214500000000000
0aaaaa

#215000000000000
1aaaaa
b10001001000 aaaac
b1 aaaad
b1110001 aaaag
b111101111100100101 aaaah

#215500000000000
0aaaaa

#216000000000000
1aaaaa
b101000 aaaab
b0 aaaac
b0 aaaad
b1101000 aaaaf
b111101111111000010 aaaah

#216500000000000
0aaaaa

#217000000000000
1aaaaa
b10011100 aaaab
b1110010 aaaag

#217500000000000
0aaaaa

#218000000000000
1aaaaa
b11101000 aaaab
b1101001 aaaaf

#218500000000000
0aaaaa

#219000000000000
1aaaaa
b10001100000 aaaac
b1 aaaad
b1110011 aaaag
b111111011011000010 aaaah

#219500000000000
0aaaaa

#220000000000000
1aaaaa
b101100 aaaab
b0 aaaac
b0 aaaad
b1101010 aaaaf
b111111011101011111 aaaah

#220500000000000
0aaaaa

#221000000000000
1aaaaa
b10101100 aaaab
b1101011 aaaaf

#221500000000000
0aaaaa

#222000000000000
1aaaaa
b11101000 aaaab
b1101100 aaaaf

#222500000000000
0aaaaa

#223000000000000
1aaaaa
b11001110101 aaaac
b1 aaaad
b1110100 aaaag
b1000000111001011111 aaaah

#223500000000000
0aaaaa

#224000000000000
1aaaaa
b100000 aaaab
b0 aaaac
b0 aaaad
b1110101 aaaag
b1000000111011111100 aaaah

#224500000000000
0aaaaa

#225000000000000
1aaaaa
b10000000 aaaab
b1110110 aaaag

#225500000000000
0aaaaa

#226000000000000
1aaaaa
b11101100 aaaab
b1110111 aaaag

#226500000000000
0aaaaa

#227000000000000
1aaaaa
b1101110 aaaac
b1 aaaad
b1111000 aaaag
b1000010010111111100 aaaah

#227500000000000
0aaaaa

#228000000000000
1aaaaa
b100100 aaaab
b0 aaaac
b0 aaaad
b1111001 aaaag
b1000010011010011001 aaaah

#228500000000000
0aaaaa

#229000000000000
1aaaaa
b10010000 aaaab
b1111010 aaaag

#229500000000000
0aaaaa

#230000000000000
1aaaaa
b11101100 aaaab
b1111011 aaaag

#230500000000000
0aaaaa

#231000000000000
1aaaaa
b1101111100 aaaac
b1 aaaad
b1111100 aaaag
b1000011110110011001 aaaah

#231500000000000
0aaaaa

#232000000000000
1aaaaa
b101000 aaaab
b0 aaaac
b0 aaaad
b1101101 aaaaf
b1000011111000110110 aaaah

#232500000000000
0aaaaa

#233000000000000
1aaaaa
b10100000 aaaab
b1101110 aaaaf

#233500000000000
0aaaaa

#234000000000000
1aaaaa
b11101100 aaaab
b1101111 aaaaf

#234500000000000
0aaaaa

#235000000000000
1aaaaa
b1110100110 aaaac
b1 aaaad
b1111101 aaaag
b1000101010100110110 aaaah

#235500000000000
0aaaaa

#236000000000000
1aaaaa
b101100 aaaab
b0 aaaac
b0 aaaad
b1110000 aaaaf
b1000101010111010011 aaaah

#236500000000000
0aaaaa

#237000000000000
1aaaaa
b10110000 aaaab
b1110001 aaaaf

#237500000000000
0aaaaa

#238000000000000
1aaaaa
b11101100 aaaab
b1110010 aaaaf

#238500000000000
0aaaaa

#239000000000000
1aaaaa
b1110100110 aaaac
b1 aaaad
b1111110 aaaag
b1000110110011010011 aaaah

#239500000000000
0aaaaa

#240000000000000
1aaaaa
b110000 aaaab
b0 aaaac
b0 aaaad
b1110011 aaaaf
b1000110110101110000 aaaah

#240500000000000
0aaaaa

#241000000000000
1aaaaa
b1110100 aaaab
b1110100 aaaaf

#241500000000000
0aaaaa

#242000000000000
1aaaaa
b11110000 aaaab
b1110101 aaaaf

#242500000000000
0aaaaa

#243000000000000
1aaaaa
b1000100111 aaaac
b1 aaaad
b1111111 aaaag
b1001000010001110000 aaaah

#243500000000000
0aaaaa

#244000000000000
1aaaaa
b110100 aaaab
b0 aaaac
b0 aaaad
b1110110 aaaaf
b1001000010100001101 aaaah

#244500000000000
0aaaaa

#245000000000000
1aaaaa
b10000100 aaaab
b10000000 aaaag

#245500000000000
0aaaaa

#246000000000000
1aaaaa
b11110000 aaaab
b1110111 aaaaf

#246500000000000
0aaaaa

#247000000000000
1aaaaa
b1001101011 aaaac
b1 aaaad
b10000001 aaaag
b1001001110000001101 aaaah

#247500000000000
0aaaaa

