src/tracefile.vcd
$date
     Jul 07, 2024       15:14:31
$end

$version
 SystemC 2.3.4-Accellera --- Jun  9 2024 19:30:34
$end

$timescale
     1 ps
$end

$scope module SystemC $end
$var wire    1  aaaaa  Clock       $end
$var wire   32  aaaab   Request Address [31:0]  $end
$var wire   32  aaaac  Request Data [31:0]  $end
$var wire   32  aaaad  Request WE [31:0]  $end
$var wire   32  aaaae  Result Cycles [31:0]  $end
$var wire   64  aaaaf  Result Misses [63:0]  $end
$var wire   64  aaaag  Result Hits [63:0]  $end
$var wire   64  aaaah  Result Primitive Gate Count [63:0]  $end
$upscope $end
$enddefinitions  $end

$comment
All initial values are dumped below at time 0 sec = 0 timescale units.
$end

$dumpvars
1aaaaa
b110011 aaaab
b1 aaaac
b1 aaaad
b110010000 aaaae
b1 aaaaf
b0 aaaag
b0 aaaah
$end

#500000000000
0aaaaa

#1000000000000
1aaaaa
b100 aaaab
b10 aaaac
b10 aaaaf

#1500000000000
0aaaaa

#2000000000000
1aaaaa
b1000 aaaab
b11 aaaac
b11 aaaaf

#2500000000000
0aaaaa

#3000000000000
1aaaaa
b1100 aaaab
b100 aaaac
b1 aaaag

#3500000000000
0aaaaa

#4000000000000
1aaaaa
b100001 aaaab
b101 aaaac
b100 aaaaf

#4500000000000
0aaaaa

#5000000000000
1aaaaa
b11110100 aaaab
b110 aaaac
b101 aaaaf

#5500000000000
0aaaaa

#6000000000000
1aaaaa
b110011 aaaab
b0 aaaac
b0 aaaad
b110 aaaaf

#6500000000000
0aaaaa

#7000000000000
1aaaaa
b100 aaaab
b10 aaaag

#7500000000000
0aaaaa

#8000000000000
1aaaaa
b1000 aaaab
b11 aaaag

#8500000000000
0aaaaa

#9000000000000
1aaaaa
b1100 aaaab
b100 aaaag
b1011100000000 aaaah

#9500000000000
0aaaaa

#10000000000000
1aaaaa
b100001 aaaab
b101 aaaag

#10500000000000
0aaaaa

#11000000000000
1aaaaa
b11110100 aaaab
b110 aaaag

#11500000000000
0aaaaa

#12000000000000
1aaaaa
b10111000000000 aaaah

